cluster_id	group
0	unsorted
1	unsorted
4	noise
7	unsorted
8	unsorted
9	noise
11	noise
13	noise
14	noise
15	noise
16	unsorted
18	noise
20	unsorted
21	noise
26	unsorted
27	noise
28	noise
29	good
31	noise
32	noise
33	unsorted
34	noise
36	noise
37	unsorted
38	noise
39	unsorted
41	unsorted
43	good
46	noise
48	noise
51	unsorted
53	unsorted
56	good
57	noise
59	noise
60	noise
61	unsorted
63	noise
66	unsorted
67	noise
68	unsorted
70	noise
71	good
72	unsorted
73	good
74	noise
75	unsorted
76	noise
78	noise
81	noise
82	noise
85	noise
86	unsorted
89	noise
92	noise
94	noise
96	noise
97	noise
98	unsorted
99	noise
100	unsorted
101	noise
103	unsorted
105	good
106	noise
108	noise
109	unsorted
110	unsorted
111	noise
112	unsorted
113	noise
114	noise
115	unsorted
116	noise
120	good
122	unsorted
123	noise
124	unsorted
127	unsorted
129	noise
130	noise
135	noise
136	unsorted
139	noise
140	noise
142	noise
145	unsorted
146	unsorted
148	noise
152	noise
157	unsorted
160	unsorted
161	unsorted
163	unsorted
165	unsorted
171	noise
174	unsorted
177	noise
180	noise
181	good
183	good
184	noise
188	unsorted
191	unsorted
192	noise
193	unsorted
203	good
204	unsorted
206	unsorted
209	unsorted
213	noise
214	unsorted
217	unsorted
222	noise
224	noise
225	noise
226	unsorted
229	unsorted
230	unsorted
231	unsorted
234	noise
235	unsorted
236	unsorted
238	noise
239	unsorted
241	noise
243	noise
244	noise
248	unsorted
249	noise
251	noise
253	noise
256	noise
258	noise
260	unsorted
261	unsorted
263	unsorted
264	noise
266	noise
268	unsorted
272	unsorted
275	noise
279	unsorted
282	unsorted
283	noise
285	noise
286	noise
288	unsorted
290	noise
291	unsorted
293	noise
294	unsorted
295	unsorted
296	noise
297	unsorted
298	noise
299	unsorted
304	unsorted
306	unsorted
309	noise
312	noise
313	noise
314	noise
317	unsorted
319	noise
327	noise
329	unsorted
332	noise
334	noise
336	noise
337	noise
338	noise
339	unsorted
340	noise
341	noise
342	noise
344	unsorted
345	noise
346	noise
348	noise
349	unsorted
360	unsorted
364	noise
367	unsorted
370	unsorted
371	unsorted
372	unsorted
374	unsorted
380	noise
382	noise
383	unsorted
385	unsorted
387	unsorted
389	unsorted
391	unsorted
392	good
393	unsorted
396	unsorted
397	good
398	unsorted
399	good
400	unsorted
402	unsorted
404	unsorted
405	good
407	unsorted
409	unsorted
410	good
411	unsorted
412	good
413	good
414	unsorted
415	good
416	unsorted
418	unsorted
420	unsorted
421	good
422	unsorted
423	good
427	unsorted
428	good
429	unsorted
432	unsorted
433	good
434	unsorted
435	good
436	unsorted
438	unsorted
439	good
440	unsorted
441	good
442	unsorted
444	unsorted
445	good
449	unsorted
450	good
451	unsorted
454	unsorted
455	good
456	good
457	unsorted
460	unsorted
461	good
462	unsorted
464	unsorted
465	good
466	unsorted
470	unsorted
472	unsorted
474	unsorted
475	good
476	unsorted
480	unsorted
481	good
482	unsorted
484	unsorted
485	good
486	unsorted
488	unsorted
490	unsorted
491	good
493	unsorted
495	unsorted
497	unsorted
498	good
499	unsorted
500	good
501	unsorted
503	unsorted
504	good
505	unsorted
507	unsorted
509	unsorted
510	good
511	unsorted
513	unsorted
515	unsorted
516	good
517	unsorted
519	unsorted
521	unsorted
523	unsorted
525	unsorted
527	unsorted
528	good
529	unsorted
531	unsorted
533	unsorted
534	good
535	unsorted
536	good
537	unsorted
539	unsorted
541	unsorted
543	unsorted
544	good
545	unsorted
547	unsorted
548	good
549	unsorted
551	unsorted
553	unsorted
555	unsorted
557	unsorted
558	good
559	unsorted
561	unsorted
562	good
563	unsorted
565	unsorted
567	unsorted
569	unsorted
570	good
571	unsorted
573	unsorted
575	unsorted
577	unsorted
580	unsorted
582	unsorted
584	unsorted
586	unsorted
589	unsorted
591	unsorted
593	unsorted
594	good
595	unsorted
597	unsorted
598	good
599	unsorted
600	noise
601	unsorted
603	unsorted
605	unsorted
607	unsorted
610	unsorted
612	unsorted
614	unsorted
616	unsorted
617	good
619	unsorted
621	unsorted
623	unsorted
625	unsorted
627	unsorted
628	good
629	unsorted
631	unsorted
633	unsorted
634	good
636	unsorted
638	unsorted
639	good
640	unsorted
642	unsorted
644	unsorted
646	unsorted
647	good
648	unsorted
650	unsorted
651	noise
652	unsorted
654	unsorted
656	unsorted
657	noise
658	unsorted
660	unsorted
662	good
663	good
664	unsorted
666	unsorted
667	good
668	good
669	good
671	unsorted
672	good
673	unsorted
674	good
675	good
