cluster_id,firing_rate,presence_ratio,isi_viol_rate,isi_viol_n,amplitude_cutoff,isolation_distance,l_ratio,d_prime,nn_hit_rate,nn_miss_rate,silhouette_score,max_drift,cumulative_drift
0,2.592505002197251e-05,0.98,0.0,0,0.5,,,,,,-0.08020771594014167,,
1,2.1028096128933256e-05,0.91,0.0,0,0.1903845522884699,15.290374827738923,2.0138026940192497,1.9621829573106457,0.8473581213307241,0.009453781512605041,0.13095256402367145,,
4,0.0002676864291951288,0.99,0.0,0,0.07251504408411338,,,,,,0.02854362785665958,,
7,1.4608559933016255e-05,0.71,0.0,0,0.5,13.554774468285379,1.2049051696709314,2.495889655330632,0.8666666666666667,0.037069468768242846,0.04216354836998012,,
8,2.6213106133327758e-05,0.97,0.0,0,0.11624690339101089,,,,,,0.11325639547698445,,
9,7.328970490338578e-05,0.99,0.0,0,0.24745000775245565,8.374585771011137,3.2700638153103836,0.7586345008811539,0.20066666666666666,0.1257158347734743,-0.029932726943791402,,
11,0.0001518878724303183,0.99,0.0,0,0.01678327660998128,8.72478011284989,4.073170602467686,0.37757338296129894,0.10933333333333334,0.10483417650365374,0.028491544711011035,,
13,0.00011847336351310929,0.99,0.0,0,0.019405413453477304,,,,,,0.002931812420400476,,
14,0.0001319708498737553,0.9,0.0,0,0.024365410388254165,9.554608446106478,2.9431256852546213,0.3078023560074774,0.14355555555555555,0.1378968253968254,0.017110264324138834,,
15,0.00019052854222497255,0.55,0.0,0,0.018104218292502035,,,,,,0.022361496838567377,,
16,9.258946436418753e-06,0.82,0.0,0,0.5,14.877139104170315,1.8870909481469424,3.638551410800116,0.8103703703703704,0.0027404768429706767,-0.038446330576551765,,
18,0.00012962525010986256,0.99,0.0,0,0.03639294902293836,,,,,,0.017994739019905767,,
20,5.637669607952752e-06,0.48,0.0,0,0.3813145175101046,12.782420885229296,2.1413712190733984,2.67359432091533,0.8345498783454988,0.013725490196078431,0.049951970543865507,,
21,0.00013682665289374378,0.96,0.0,0,0.01915674612233046,20.718182256942338,0.49332353666911405,2.8170626037392252,0.7113333333333334,0.07521268368136118,0.017881470251591803,,
26,4.485445162531752e-06,0.29,0.0,0,0.4521132564073705,6.218957090575431,19.08497473607369,2.8379249478894564,0.25382262996941896,0.008244994110718492,-0.05703366492652207,,
27,3.506054383923901e-05,0.99,0.0,0,0.029813003133486435,8.053541052434738,4.81718142756654,1.0018558986919068,0.2214397496087637,0.07827276279796795,-0.03209745771854678,,
28,0.0001192963809741243,0.75,0.0,0,0.21111385724139928,8.000463718723065,7.259229951805699,0.6137862578191277,0.08441746169413125,0.0580463734281318,0.021595231330740258,,
29,3.732384185703026e-05,0.98,0.0,0,0.00028531700331986445,86.12855427136188,0.0015313197033235354,7.920711958356813,0.9937522969496508,0.0017316017316017316,0.4523144615572633,,
31,4.135662741600376e-05,0.99,0.0,0,0.5,274.07191733668384,0.0529658509780052,2.3348386686492315,0.9509121061359868,0.12059620596205962,0.013720250632638157,,
32,0.00013456335487595255,0.99,0.0,0,0.11826585928023389,,,,,,0.002104514534471819,,
33,4.115087305075002e-08,0.01,0.0,0,0.0,,,,,,,,
34,0.00016855397601587207,0.99,0.0,0,0.5,136.70828517173257,0.07771835402962819,1.6437567457178532,0.8835555555555555,0.4834390415785765,-0.05111748133574062,,
36,3.189192661433126e-05,0.99,0.0,0,0.28471056635596875,9.436714865671783,3.9597426863395877,1.4495661840790124,0.27483870967741936,0.04879692011549567,-0.001642388157876245,,
37,1.0452321754890503e-05,0.85,0.0,0,0.5,6.558741554478193,12.351174861127136,2.1438957354528103,0.37401574803149606,0.015849497126436782,0.11398601071999906,,
38,0.00040257899105548736,0.99,0.0,0,0.5,,,,,,0.0635120573762733,,
39,1.6871857950807506e-05,0.94,0.0,0,0.04368206231539023,7.011399832789943,4.295350635656928,1.5172837158544723,0.23414634146341465,0.04965508265000651,-0.015115670263143798,,
41,2.423786422689176e-05,0.55,0.0,0,0.5,17.489129716047792,0.7395344105378601,2.8815624479532143,0.6983588002263724,0.018422780239619234,0.07245271390310015,,
43,0.00010184841080060628,0.98,0.0,0,0.022432715258769154,38.112269732399064,0.05763421954242107,4.727539837223284,0.9766666666666667,0.015298776097912166,0.07334857755485369,,
46,5.888689933562327e-05,0.99,0.0,0,0.10000740747448807,,,,,,-0.03425823240296648,,
48,0.00018155765189990905,0.78,0.0,0,0.04201732526305982,,,,,,0.01836124454934569,,
51,1.4855465171320755e-05,0.75,0.0,0,0.5,8.517383793539837,4.343395935975248,1.1858108848912565,0.24561403508771928,0.07276924621098063,0.013131030889778794,,
53,5.102708258293002e-06,0.62,0.0,0,0.5,9.807722832577356,10.695053725414846,3.4350592358111802,0.47043010752688175,0.002866771708683473,0.00450622528280555,,
56,0.00013900764916543356,0.99,0.0,0,0.5,13.281241770975521,1.0872061078968984,1.2331927439427643,0.6942222222222222,0.10745562130177515,-0.12730065150541503,,
57,0.0001768253014990728,0.95,0.0,0,0.034299342278382494,,,,,,0.03108123158079401,,
59,4.9092991549544765e-05,0.99,0.0,0,0.27177086546020296,12.387290059960913,1.437432538627163,1.6765760044209506,0.33053925677563567,0.08848108035833667,0.020462943401034602,,
60,0.00027229532697681285,0.98,0.0,0,0.5,36.62546518720193,0.28072507331116225,1.852421154734217,0.8386666666666667,0.13249711649365628,-0.1519138353884949,,
61,2.386750636943501e-06,0.44,0.0,0,0.5,,,,,,-0.07340571432185994,,
63,0.0001228353560564888,0.9,0.0,0,0.05134703246422645,,,,,,0.014168465187089297,,
66,2.4937429068754507e-05,0.82,0.0,0,0.4657946458223716,,,,,,-0.021988916661618924,,
67,0.0001542746230672618,0.61,0.0,0,0.05542345017640872,,,,,,0.031203115848861884,,
68,4.0739364320242515e-06,0.21,0.0,0,0.5,,,,,,-0.15786869285631497,,
70,0.00014575639234575656,0.82,0.0,0,0.5,8.751369809871791,4.48723921305838,0.38752004196394,0.10577777777777778,0.09388734468914071,0.018033445618904825,,
71,4.0986269558547016e-05,0.85,0.0,0,0.09938132038894465,159.08264668515778,0.0556909647832229,6.234654660425675,0.9497991967871486,0.009646932079721855,0.12211919760968688,,
72,1.2386412788275754e-05,0.87,0.0,0,0.5,68.12891359135081,0.22208812615571252,2.485649882865762,0.7774086378737541,0.08292282430213464,-0.0011331334267590384,,
73,3.600701391940626e-05,0.98,0.0,0,0.003721813009735051,78.72857535531735,3.822852526210571e-06,7.658192719328721,0.9958095238095238,0.000286935812458753,0.2382925245227206,,
74,0.00010415285969144828,0.98,0.0,0,0.5,,,,,,-0.02961341218755521,,
75,2.1357303113339257e-05,0.97,0.0,0,0.20910369198707401,68.28832679715639,0.08377895567492151,3.2520608392896686,0.9184328837508028,0.10886644219977554,0.07607552743354408,,
76,8.777481221724977e-05,0.99,0.0,0,0.5,116.93739652060604,0.0205719121235416,3.930237027940074,0.9642222222222222,0.04160800875958079,0.042803543768127034,,
78,0.00011950213533937805,0.73,0.0,0,0.10494905142914814,,,,,,0.02029474549368301,,
81,0.00010114884595874353,0.61,0.0,0,0.3127831358410784,,,,,,-0.014470440206496064,,
82,2.748878319790101e-05,0.94,0.0,0,0.2054340245634092,8.805318609170767,4.203339438862449,1.222906815204873,0.20808383233532934,0.06427727809575724,0.029435278284251944,,
85,6.666441434221502e-05,0.99,0.0,0,0.22897807603745537,,,,,,0.006834690454847297,,
86,4.115087305075002e-08,0.01,0.0,0,0.0,,,,,,,,
89,9.699260778061778e-05,0.99,0.0,0,0.26169060019265933,9.75207533863393,2.2133529244127095,0.8035762091592139,0.2842222222222222,0.15673507902807265,-0.0530392999033496,,
92,5.9504162431384517e-05,0.99,0.0,0,0.05628676684757701,10.554729900991104,2.2923738182070252,1.361258246886476,0.3771323190410327,0.11260920698924731,-0.0031744320222740338,,
94,0.00010892636096533529,0.99,0.0,0,0.5,79.51358811802606,0.05810058481613054,2.7190595279879006,0.8988888888888888,0.11872705018359853,0.016177852499193613,,
96,0.00010789758913906654,0.99,0.0,0,0.08648905427542415,,,,,,0.005409434884386012,,
97,8.316591443556578e-05,0.98,0.0,0,0.5,,,,,,-0.03725227935517096,,
98,1.2715619772681755e-05,0.59,0.0,0,0.20228105645239564,7.054132040051515,7.308151080536299,1.93613419393349,0.34627831715210355,0.026496293837813916,-0.06414849631796493,,
99,7.226093307711703e-05,0.99,0.0,0,0.5,34.701917044536536,0.26624999786697084,1.8766175814432404,0.7164444444444444,0.16990962254120148,-0.034069213588756954,,
100,1.4279352948610254e-05,0.62,0.0,0,0.0007457709568042014,13.509663655737805,1.0558627144441004,3.4723181178007065,0.6551392891450528,0.024430911990720602,0.02677785480903031,,
101,0.006296988895971869,0.99,0.0,0,0.5,,,,,,0.00011526595334059303,,
103,2.6213106133327758e-05,0.96,0.0,0,0.01701489328823978,6.699955569626605,6.500829870830051,1.0395398614690556,0.1360544217687075,0.04246575342465753,-0.024099385073476483,,
105,0.0001469497676642283,0.99,0.0,0,0.0016098578313303105,87.04344065297592,0.05517942510394326,2.529455239644474,0.9535555555555556,0.04346481051817479,0.07245271390310015,,
106,0.00013448105312985104,0.99,0.0,0,0.06045555468320237,17.58570269699511,0.6812507493487254,2.3387325007047095,0.7864444444444444,0.073618700667881,-0.09055677097798505,,
108,4.9339896787849265e-05,0.54,0.0,0,0.5,7.449668196009821,8.889682870754555,0.584934753341415,0.0609597924773022,0.049898095438892405,-0.03745449416201874,,
109,2.633655875248001e-06,0.35,0.0,0,0.5,28.835743012104228,0.34872425534780893,1.5678178067863644,0.46875,0.32234432234432236,-0.06963118134512153,,
110,1.6172293108944756e-05,0.89,0.0,0,0.12599787246102714,11.914789365295807,2.9732665273422345,2.1294225933967907,0.4164546225614928,0.01421283610684132,0.03508571613442489,,
111,2.752993407095176e-05,0.99,0.0,0,0.021260413611592668,8.036215954471544,4.146578733963447,1.3215066627014684,0.28649725959143,0.05749750321015837,0.10542145859618472,,
112,4.115087305075002e-08,0.01,0.0,0,0.0,,,,,,,,
113,0.00013024251320562378,0.53,0.0,0,0.07878070183979287,,,,,,0.02269367565488744,,
114,0.00012769115907647729,0.91,0.0,0,0.06400620721573225,,,,,,0.016304150036658322,,
115,1.4773163425219255e-05,0.92,0.0,0,0.3299668432422952,,,,,,-0.015945730486622955,,
116,0.00014707322028338055,0.62,0.0,0,0.21283954790301804,14.402858793029905,1.040477822988679,0.7835952356842367,0.3751111111111111,0.2866140251927054,0.03306024843217563,,
120,3.3003000186701514e-05,0.93,0.0,0,0.30280897514335786,25.781561742624284,0.3011416105647885,2.569167174943342,0.8088113050706567,0.04038941185936117,0.02677785480903031,,
122,1.6748405331655257e-05,0.9,0.0,0,0.5,7.399848003391614,5.289354299446332,2.7244328655399372,0.40294840294840295,0.014442658092175776,0.050072325219469825,,
123,8.250750046675377e-05,0.99,0.0,0,0.16938288166514012,,,,,,-0.015034953208518513,,
124,2.880561113552501e-07,0.07,0.0,0,0.5,,,,,,,,
127,1.3826693345052005e-05,0.92,0.0,0,0.24640456921804013,5.0453545913330275,22.792069593973533,1.3472299025948524,0.09821428571428571,0.01692420897718911,0.09182519795816035,,
129,5.189125091699577e-05,0.92,0.0,0,0.12769043839103225,,,,,,-0.07143864962224424,,
130,0.0001443161117889803,0.99,0.0,0,0.047243937017566545,35.67116265404165,0.4484723789079666,1.4749065692559926,0.5706666666666667,0.22588099364529174,0.02701039594063091,,
135,0.00012406988224801128,0.74,0.0,0,0.056523987155858525,8.025837658645377,7.030286064737964,0.3894478375124404,0.07478454267445094,0.0624612166019538,0.006373858101610739,,
136,1.6871857950807506e-05,0.94,0.0,0,0.0006311768829538423,5.566871008310849,6.77691072692683,1.2276055729187758,0.14878048780487804,0.034980592634668184,-0.09301645197190207,,
139,3.761189796838551e-05,0.98,0.0,0,0.28904870272754457,9.733336923720827,3.5081025174640366,1.0743740037840293,0.20787746170678337,0.054609241563956974,0.011044063604867703,,
140,5.4524906792243766e-05,0.79,0.0,0,0.00019530756378193835,,,,,,-0.08317019192182068,,
142,0.00011061354676041604,0.99,0.0,0,0.5,,,,,,-0.07285281923834533,,
145,1.4320503821661005e-05,0.92,0.0,0,0.5,8.233429650348478,8.26557425598332,2.161945226989859,0.24808429118773948,0.01476874248125112,0.022885749341100114,,
146,1.2797921518783254e-05,0.67,0.0,0,0.005499489836709966,,,,,,0.12211919760968688,,
148,3.390831939381801e-05,0.85,0.0,0,0.5,,,,,,-0.10547156406290419,,
152,5.115053520208227e-05,0.99,0.0,0,0.05071158034233897,,,,,,-0.078525000343682,,
157,1.2756770645732504e-06,0.18,0.0,0,0.008347823290679691,7.392966221957952,24.83413955631581,2.531439886967482,0.07526881720430108,0.0012954658694569008,,,
160,6.789894053373752e-06,0.64,0.0,0,0.008806852195715698,15.699623476163712,0.8631846392968375,2.319884719587286,0.6101010101010101,0.06926863572433192,-0.0011331334267590384,,
161,8.230174610150003e-08,0.02,0.0,0,0.5,,,,,,,,
163,2.0081626048766006e-05,0.98,0.0,0,0.000530292053301427,6.492198570340208,9.258738083593359,0.6810524716279258,0.08196721311475409,0.048122329660445246,-0.00586396890951339,,
165,1.2345261915225005e-07,0.03,0.0,0,0.5,,,,,,,,
171,0.00014336964170881306,0.56,0.0,0,0.045093389576747425,,,,,,0.019716686440974764,,
174,1.2345261915225005e-07,0.03,0.0,0,0.08692465146509912,,,,,,,,
177,5.600633822207077e-05,0.97,0.0,0,0.2102255365207228,,,,,,-0.07899633303519088,,
180,0.0001680190146662123,0.56,0.0,0,0.11229839882260455,14.646844596376518,0.9557272093889833,0.43100216374773936,0.35844444444444445,0.3212204319506342,0.023888671226908985,,
181,6.966842807491977e-05,0.71,0.0,0,0.01380985262393405,29.833183852047362,0.09006885455162524,5.1956021216498804,0.9148841354723708,0.010358120766681078,0.22391343976446723,,
183,8.242519872065228e-05,0.99,0.0,0,0.02339334629803213,13.719587590564457,1.1037417353375114,0.813085845881106,0.38355555555555554,0.223458713554418,-0.002397505854845737,,
184,0.0001803642765814373,0.99,0.0,0,0.04425495098513189,,,,,,0.0191448650929727,,
188,5.267311750496002e-06,0.58,0.0,0,0.346318593609379,13.449064413728804,1.3218266801541556,1.4219765453685855,0.4661458333333333,0.045008460236886635,0.07607552743354408,,
191,1.0287718262687503e-05,0.77,0.0,0,0.5,44.322724237146815,0.14496049498368718,1.4433365442734414,0.8013333333333333,0.6043956043956044,0.018336493361870567,,
192,0.00012658008550410705,0.99,0.0,0,8.58448038783454e-05,,,,,,-0.0808465357092004,,
193,1.4402805567762504e-06,0.21,0.0,0,0.09310807205746491,,,,,,0.012006641902714369,,
203,0.00022032177431371557,0.99,0.0,0,0.004346232888579923,72.59922149609042,0.014388171742654112,4.961999820126475,0.982,0.025451559934318555,0.21636500690126642,,
204,8.230174610150003e-08,0.02,0.0,0,0.5,,,,,,,,
206,1.1974904057768254e-05,0.65,0.0,0,0.3222873581509426,7.117934207788433,9.938718148026615,2.1848694426020034,0.4009163802978236,0.021747648902821316,-0.07500823587912724,,
209,2.839410240501751e-06,0.31,0.0,0,0.5,7.927025442585017,10.765782612223163,3.1450700537902976,0.2463768115942029,0.005638897755080328,-0.04382030040857894,,
213,0.00010324754048433178,0.75,0.0,0,0.04867755533526246,,,,,,0.004256402351091033,,
214,2.1521906605542256e-05,0.9,0.0,0,0.5,17.66964688060397,0.7706276191760073,2.4870044621422482,0.7221159974506055,0.01289562602684522,-0.14530255945772055,,
217,3.7035785745675013e-07,0.08,0.0,0,0.5,,,,,,,,
222,0.00013036596582477605,0.99,0.0,0,0.01315688251072419,,,,,,0.020566408245046897,,
224,2.7159576213495008e-05,0.9,0.0,0,0.5,7.958631852240746,7.954414048409582,1.755336557981992,0.447979797979798,0.025016986842918032,-0.022013111413114076,,
225,4.584207257853551e-05,0.84,0.0,0,0.5,,,,,,-0.10943567079026754,,
226,1.6460349220300007e-07,0.04,0.0,0,0.5,,,,,,,,
229,1.5513879140132755e-05,0.68,0.0,0,0.20836285999468745,5.073296360663584,22.202428526580558,0.9737345687361084,0.13969938107869143,0.014671361502347418,-0.029017504573545436,,
230,8.847437705911253e-06,0.79,0.0,0,0.5,8.911672296851949,13.066894467100703,2.699066720564897,0.6232558139534884,0.005454347114650376,-0.018702154872189455,,
231,5.925725719308002e-06,0.61,0.0,0,0.5,4.479146882882442,42.940181774986534,1.6515508798608411,0.18287037037037038,0.007252652089196796,-0.10827218181848994,,
234,7.666407649354728e-05,0.8,0.0,0,0.32542512327184125,7.827061388151588,7.645310843446028,0.6692945880432772,0.0794351279788173,0.05537004646561015,-0.03369367928810889,,
235,4.115087305075002e-08,0.01,0.0,0,0.0,,,,,,,,
236,8.559381594556003e-06,0.79,0.0,0,0.5,6.1039113172149255,18.01757715289948,2.0948934226462983,0.20673076923076922,0.009315405571667107,-0.1944041840923014,,
238,3.518399645839126e-05,0.99,0.0,0,0.5,9.382449051171637,1.983838760999025,1.6758137781312668,0.5847953216374269,0.10277559570568212,-0.029237356271069,,
239,1.1810300565565254e-05,0.57,0.0,0,0.5,13.277615387182593,1.5780900339662631,3.2908691703463866,0.835075493612079,0.024654088050314465,0.05880448482404108,,
241,2.8929063754677258e-05,0.95,0.0,0,0.5,,,,,,-0.07969945321638734,,
243,6.077983949595777e-05,0.98,0.0,0,0.3495202547319665,12.825310987962439,1.4064682294047781,1.1572984923430703,0.3798239675016926,0.15617501403992445,-0.002397505854845737,,
244,0.0001705703687953588,0.96,0.0,0,0.046472922071407866,9.57164673797159,3.582349693087163,0.8914257827164036,0.15888888888888889,0.10353127743323988,0.028911635178940364,,
248,8.847437705911253e-06,0.68,0.0,0,0.5,,,,,,-0.02541690023536744,,
249,0.00018028197483533582,0.91,0.0,0,0.042295402792343756,,,,,,0.01830246746973399,,
251,2.8106046293662258e-05,0.97,0.0,0,0.5,6.002307277148647,8.856345166669993,1.4718936337019326,0.2635431918008785,0.02933776515938416,-0.07716882989296918,,
253,0.00024229634052281608,0.99,0.0,0,0.3431005521876012,35.44507209420348,0.35533209037238733,1.6843981162087913,0.842,0.15959703075291623,-0.045712116834130775,,
256,8.160218125963727e-05,0.65,0.0,0,0.07698550741121427,,,,,,-0.03828296213971209,,
258,6.769318616848378e-05,0.99,0.0,0,0.5,,,,,,-0.10588059546186694,,
260,1.4526258186914756e-05,0.91,0.0,0,0.5,7.980310263182807,5.803231288946658,2.208231508600257,0.4523135033050047,0.013078149920255184,-0.0022013975210895217,,
261,4.115087305075002e-08,0.01,0.0,0,0.0,,,,,,,,
263,2.654231311773376e-05,0.85,0.0,0,0.3802812216353283,6.350904680719092,23.857780857574422,0.9766279027389455,0.03418803418803419,0.01659117512341595,-0.09639799529033805,,
264,0.0001488427078245628,0.81,0.0,0,0.05237399830234508,,,,,,0.019821884545631913,,
266,0.00010793874001211728,0.99,0.0,0,0.29161195060391726,185.01799293185948,0.08976057228049052,2.6590655810875994,0.9288888888888889,0.13696969696969696,-0.011089927726157547,,
268,5.431915242699002e-06,0.55,0.0,0,0.5,6.071553534696168,24.316461943318867,1.7221523789072557,0.15151515151515152,0.00911541462722565,-0.04553877416081878,,
272,9.135493817266504e-06,0.88,0.0,0,0.2488657386079839,,,,,,0.04162608812879524,,
275,4.7488107500565514e-05,0.99,0.0,0,0.5,16.225615795518582,0.8129344434040325,1.683440797488276,0.7111496244945118,0.1373945147679325,0.024200502814772307,,
279,4.115087305075002e-08,0.01,0.0,0,0.0,,,,,,,,
282,3.2920698440600014e-07,0.08,0.0,0,0.03234781525139236,,,,,,-0.06534527445955883,,
283,0.00016279285378876704,0.97,0.0,0,0.022373320445502685,,,,,,0.00011526595334059303,,
285,0.00010032582849772854,0.71,0.0,0,0.017794628576710325,7.32531285408931,9.50338927001512,0.6105715838215305,0.057388316151202746,0.04692590646347872,0.004240628632796496,,
286,0.0004717947595268489,0.99,0.0,0,0.5,54.09090478312128,0.07439337287215982,2.8449864791791994,0.92,0.2735632183908046,0.06679479772461723,,
288,8.230174610150003e-08,0.02,0.0,0,0.5,,,,,,,,
290,8.728100174064077e-05,0.91,0.0,0,0.2455363864758672,,,,,,-0.025604533245628516,,
291,1.4402805567762504e-06,0.2,0.0,0,0.5,,,,,,-0.2181327769864824,,
293,0.00013542752321001828,0.52,0.0,0,0.061977270055340886,,,,,,0.01992037260184506,,
294,1.2345261915225005e-07,0.02,0.0,0,0.5,,,,,,,,
295,3.744729447618251e-06,0.45,0.0,0,0.5,16.960544931179346,0.8454300794769798,0.9783048900282082,0.315018315018315,0.23354564755838642,-0.10157489320667892,,
296,0.00016135257323199082,0.83,0.0,0,0.08958411057413868,7.969897724518602,5.895035586150611,0.45347932309244987,0.08977777777777778,0.07076633756464504,0.029329892014855724,,
297,3.6624277015167514e-06,0.49,0.0,0,0.5,,,,,,-0.08851089065969348,,
298,0.00010625155421703653,0.99,0.0,0,0.102508712567981,,,,,,-0.019516147838528362,,
299,4.115087305075002e-08,0.01,0.0,0,0.0,,,,,,,,
304,1.1028433977601004e-05,0.86,0.0,0,0.5,9.743837173535459,1.9998437948855907,1.6765700541495516,0.6467661691542289,0.04819976771196283,-0.0025232211531873764,,
306,1.2345261915225005e-07,0.03,0.0,0,0.5,,,,,,,,
309,0.00011069584850651754,0.49,0.0,0,0.4279181424557758,15.65135330704961,0.834490235117044,1.431206706627458,0.5486666666666666,0.19811320754716982,-0.0034034966986353165,,
312,3.086315478806251e-05,0.89,0.0,0,0.5,8.368881413447113,5.451355718614093,2.08517840374172,0.5204444444444445,0.02900603199580383,-0.042115795675018226,,
313,0.00015332815298709456,0.93,0.0,0,0.08812844936510918,8.225579748282126,5.9286336664893655,0.16136253951268406,0.0816464237516869,0.07704215718040106,0.020537518007956772,,
314,0.00013530407059086604,0.79,0.0,0,0.5,8.634718220870283,4.731374147773523,0.45766779697732385,0.09355555555555556,0.09001969796454366,0.018033445618904825,,
317,8.435928975403753e-06,0.69,0.0,0,0.5,7.517977562517093,12.415847723356945,1.9746224794206613,0.17886178861788618,0.016369961121342338,0.029435278284251944,,
319,0.00010797989088516804,0.87,0.0,0,0.5,12.654289082903935,1.374471951744685,0.850990139697523,0.31155555555555553,0.22602044798251775,0.022870639686576863,,
327,0.0001304071166978268,0.53,0.0,0,0.5,12.722439618304612,1.3375702736249164,0.6232207977227793,0.2828888888888889,0.2477326968973747,0.023888671226908985,,
329,6.172630957612502e-06,0.65,0.0,0,0.2865633792867499,13.111559935530666,2.7860771766406414,2.4657438289998734,0.6444444444444445,0.004734589820631885,-0.03899249323398533,,
332,0.00015538569663963204,0.75,0.0,0,0.07880616276752969,,,,,,0.023390232024014506,,
334,0.00014361654694711754,0.97,0.0,0,0.07634154568811406,10.329569018064262,2.5021266258411337,0.21257155862822366,0.168,0.16470588235294117,0.023913987987614634,,
336,0.0001648915483143553,0.98,0.0,0,0.06947241761297186,,,,,,0.009377754588528433,,
337,0.00012094241589615429,0.79,0.0,0,0.0836810734415765,,,,,,0.014364357161521865,,
338,0.00011781494954429728,0.58,0.0,0,0.04960415525348893,,,,,,0.01900295518325366,,
339,4.115087305075001e-07,0.09,0.0,0,0.5,,,,,,,,
340,0.00010061388460908379,0.53,0.0,0,0.3662384859301159,,,,,,-0.029211653039148834,,
341,0.0001275265555842743,0.99,0.0,0,0.039181773115839674,22.670839029381934,0.5736064362351168,1.500210878045522,0.49777777777777776,0.21320627586870727,0.02701039594063091,,
342,0.00021262656105322533,0.87,0.0,0,0.04095566927730951,,,,,,0.029979153535822305,,
344,1.0287718262687503e-06,0.2,0.0,0,0.5,,,,,,-0.21806931423868398,,
345,2.707727446739351e-05,0.96,0.0,0,0.00039328650761567434,9.446685348913041,2.290427441575787,1.1024931770473652,0.23100303951367782,0.10661636274715294,-0.00942523406532065,,
346,0.0002142725959752553,0.97,0.0,0,0.1823845774322597,,,,,,0.0007668450480699026,,
348,9.444125365147129e-05,0.86,0.0,0,0.025778659318779047,,,,,,-0.022263934773131103,,
349,4.115087305075002e-08,0.01,0.0,0,0.0,,,,,,,,
360,2.189226446299901e-05,0.86,0.0,0,0.5,5.872366627099113,18.5345717155193,1.8209282435915257,0.26879432624113475,0.01621437105308073,-0.06997589914477549,,
364,0.00014460416790033556,0.76,0.0,0,0.3443602356265234,7.749479929370881,6.697836558870714,0.24763855777075863,0.06938483547925609,0.06751962154607032,0.01830246746973399,,
367,2.3291394146724506e-05,0.97,0.0,0,0.5,9.119922547626897,3.179741022946432,1.8249122448056192,0.5600706713780919,0.06069873042350107,0.009242833358953303,,
370,2.469052383045001e-07,0.05,0.0,0,0.5,,,,,,-0.22752358085421637,,
371,8.230174610150003e-08,0.02,0.0,0,0.5,,,,,,,,
372,8.559381594556003e-06,0.69,0.0,0,0.5,17.853089782069997,0.7344529784066031,1.7436427621426642,0.46474358974358976,0.21502976190476192,-0.021337293893183736,,
374,1.8435591126736006e-05,0.83,0.0,0,0.5,58.18998301415039,0.20882300746376137,1.8862490429908032,0.8043154761904762,0.5144230769230769,0.03426721212729848,,
380,7.398926974524853e-05,0.59,0.0,0,0.5,,,,,,-0.018655517738106604,,
382,0.0001501595357621868,0.99,0.0,0,0.07904431360990834,43.22619525697303,0.01678390530487996,4.975056933031978,0.988,0.011285340936089332,0.12149929245646482,,
383,1.6748405331655257e-05,0.94,0.0,0,0.5,,,,,,0.011310086099824188,,
385,1.2262960169123504e-05,0.9,0.0,0,0.04953227702868426,,,,,,0.011310086099824188,,
387,1.1522244454210004e-06,0.24,0.0,0,0.5,,,,,,0.08506365410454272,,
389,6.872195799475252e-06,0.75,0.0,0,0.09976259623940949,,,,,,0.014478185032291679,,
391,4.115087305075001e-06,0.65,0.0,0,0.5,,,,,,,,
392,0.00022756432797064758,0.99,0.0,0,0.03607899077349614,,,,,,0.23478647323335,,
393,8.271325483200753e-06,0.86,0.0,0,0.001287475233885994,4.634509123331408,24.140902126776034,1.022157898146564,0.04975124378109453,0.011617757712565839,0.07849010618264327,,
396,4.650048654734751e-06,0.48,0.0,0,0.31611156753292613,7.6092227836055475,17.17037457664714,0.8468646937734827,0.29793510324483774,0.0030159156738033383,-0.010798960318683493,,
397,0.0003269025355151581,0.99,0.0,0,0.0034120131014242147,376.9856510543467,0.0058921291615978266,3.9746271606271444,0.9868888888888889,0.08519701810436635,0.1474224694761229,,
398,5.555367861851252e-06,0.66,0.0,0,0.001916907570452541,3.348014941131153,48.11509799161858,0.9411796015446379,0.19753086419753085,0.006723716381418093,-0.19623530777314735,,
399,0.00023410731678571683,0.98,0.0,0,0.0030713145998896916,92.01404043649771,0.06211922614589824,2.388524115829185,0.8897777777777778,0.14912846998063267,0.09513579286376742,,
400,8.970890325063503e-06,0.78,0.0,0,0.49182043634996664,,,,,,0.05819538996191101,,
402,5.596518734902002e-06,0.69,0.0,0,0.5,,,,,,-0.1740495722881959,,
404,3.8681820667705014e-06,0.61,0.0,0,0.36316953541334807,,,,,,-0.05992369419063525,,
405,0.0001875245284922678,0.99,0.0,0,0.1271126828229588,,,,,,0.1344369180804712,,
407,4.896953893039252e-06,0.64,0.0,0,0.5,,,,,,-0.06242216496959527,,
409,6.008027465409502e-06,0.73,0.0,0,0.5,,,,,,0.016958836753896984,,
410,0.00022266737407760831,0.99,0.0,0,0.5,,,,,,0.04804821965868642,,
411,3.950483812872002e-06,0.61,0.0,0,0.5,2.29038999323022,42.7767537556561,1.0938082808986154,0.5104166666666666,0.0033532717056371218,-0.18842518723167065,,
412,0.00015851316299148906,0.99,0.0,0,0.5,2083.9758201955515,0.039317052588666475,2.8275254876502536,0.9468888888888889,0.10745770788658565,-0.025127919682285525,,
413,0.00020879952985950557,0.99,0.0,0,0.32640961783446315,,,,,,0.09580708947607616,,
414,1.0287718262687503e-06,0.19,0.0,0,0.5,10.6364684130639,5.986356496966432,1.6118161699058167,0.24,0.003234501347708895,-0.20372019840422267,,
415,0.00012690929248851304,0.99,0.0,0,0.0060219597122734645,327.3069978250238,0.0012834276200528098,4.295796904296994,0.9935555555555555,0.04656084656084656,0.06978060391813173,,
416,7.654062387439502e-06,0.74,0.0,0,0.5,4.546120416627327,20.020209462092918,1.4710441141239663,0.36379928315412186,0.007029720590852465,-0.0144996398683482,,
418,6.2960835767647525e-06,0.68,0.0,0,0.5,4.454382294674069,14.504390641234004,0.7690690909471063,0.12418300653594772,0.020199501246882794,-0.04983162282106321,,
420,1.975241906436001e-06,0.34,0.0,0,0.5,3.224300172021244,46.72785171291128,0.6900214860039857,0.09722222222222222,0.0053462940461725394,,,
421,0.00011571625501870903,0.99,0.0,0,0.12093420019044378,830.2700227127567,0.02277821906810289,2.2556337849086274,0.9544444444444444,0.2090316573556797,0.04883790632723162,,
422,7.612911514388752e-06,0.81,0.0,0,0.2098944482073521,,,,,,-0.11253510237325581,,
423,0.00011304144827041028,0.99,0.0,0,0.029775996625941232,,,,,,0.1248657086177125,,
427,2.0081626048766006e-05,0.58,0.0,0,0.5,2.7329323219580677,20.231568622019076,0.8590569658644904,0.37158469945355194,0.014878199198273203,-0.19997669283609337,,
428,0.00033826017647716513,0.99,0.0,0,0.5,164.99390301468574,0.1526452287282881,1.5317108348751374,0.8631111111111112,0.24719887955182074,-0.1073880010017353,,
429,6.337234449815502e-06,0.75,0.0,0,0.4658369740653876,,,,,,-0.1427932049390199,,
432,7.900967625744003e-06,0.7,0.0,0,0.5,,,,,,-0.20536078577714614,,
433,0.00016139372410504154,0.99,0.0,0,0.5,,,,,,0.048021586295780204,,
434,9.876209532180003e-06,0.76,0.0,0,0.48907168000480794,5.352300265646443,12.165383038097394,1.335690002864727,0.07777777777777778,0.021111426678027075,-0.06904557567297523,,
435,0.00010707457167805153,0.99,0.0,0,0.5,29.40179085515103,0.18321063695728548,3.198395691646571,0.9111111111111111,0.07270029673590504,0.07809173133048154,,
436,7.283704529982752e-06,0.78,0.0,0,0.43477039388896294,,,,,,-0.053753131475602144,,
438,2.633655875248001e-06,0.46,0.0,0,0.5,,,,,,0.0098201128828644,,
439,0.00010460551929500654,0.98,0.0,0,0.05609619946529215,,,,,,0.09273260603655355,,
440,1.0863830485398003e-05,0.94,0.0,0,0.000980236825799581,,,,,,-0.07340571432185994,,
441,0.00010238337215026603,0.99,0.0,0,0.00010401226768935702,,,,,,0.16619997974816572,,
442,8.271325483200753e-06,0.85,0.0,0,0.5,3.4929093164435154,41.57535180390617,0.7845909682744912,0.06301824212271974,0.009845288326300985,-0.1159080712874039,,
444,6.995648418627502e-06,0.79,0.0,0,0.5,3.0674690622384038,54.520736869178336,0.554839613354175,0.058823529411764705,0.007366759377584004,-0.0473576793171499,,
445,9.777447436858203e-05,0.99,0.0,0,0.4129376114314656,10.243185651528297,2.0315651880417014,0.7425286788393558,0.2713333333333333,0.17062017719348385,-0.05823294182684585,,
449,5.966876592358752e-06,0.66,0.0,0,0.10901455691780446,,,,,,-0.07157188461137158,,
450,0.0003532390942676381,0.99,0.0,0,0.05759333481317435,,,,,,0.09597121509041524,,
451,5.761122227105002e-06,0.73,0.0,0,0.49729403632507446,3.80816743131633,26.346578163568484,0.8722415006840001,0.21428571428571427,0.005834033417343415,-0.14098962725598216,,
454,3.8681820667705014e-06,0.55,0.0,0,0.4268034188376534,3.388420736883348,41.454345816021636,0.7843779619586854,0.17375886524822695,0.004266369875718791,-0.11428024249786842,,
455,0.00015876006822979356,0.99,0.0,0,0.2917277278694116,230.27682431365548,0.06293584025651054,2.511615020268307,0.9266666666666666,0.14221218961625282,0.07998113017127487,,
456,0.0002250541247145518,0.99,0.0,0,0.20436678524202603,48.67193537853908,0.0163809150853428,5.185596160301897,0.9864444444444445,0.008134590497319282,0.11258617762108303,,
457,8.106721990997752e-06,0.77,0.0,0,0.5,,,,,,-0.03196852267069987,,
460,1.5308124774879004e-05,0.97,0.0,0,0.204177936600335,,,,,,-0.12200855198650737,,
461,0.00023028028559199707,0.99,0.0,0,0.16436063753607288,,,,,,0.054330102890861244,,
462,3.292069844060001e-06,0.56,0.0,0,0.32830971788055396,4.017421366584934,62.232252228424066,1.215408052827688,0.1,0.005088511431233426,0.0007386638769233816,,
464,3.4566733362630013e-06,0.53,0.0,0,0.5,4.629026265870174,41.974283328812284,0.7407610670515871,0.03968253968253968,0.007483300688061876,-0.1748584160152266,,
465,9.271291698333978e-05,0.99,0.0,0,0.5,15.803479284742748,0.8499639773152026,1.100885076222587,0.516,0.2517670817906429,0.03157897704506532,,
466,4.156238178125752e-06,0.68,0.0,0,0.34803716653507116,3.8419213863518946,50.513067360097146,0.537886341524128,0.0033003300330033004,0.007003555651330676,-0.09776103846554834,,
470,1.8888250730294257e-05,0.98,0.0,0,0.01415991504535304,4.979816168492703,12.722023396587895,0.33981553652596397,0.0682643427741467,0.03563823826067466,-0.07101874616527847,,
472,1.0328869135738253e-05,0.89,0.0,0,0.4243991548824361,4.008785272130804,25.298133080629817,0.6477835355755931,0.2549800796812749,0.012594458438287154,-0.0685027474148354,,
474,8.847437705911253e-06,0.86,0.0,0,0.3136712910889314,4.966409107577638,22.852011980001585,0.4638399883350901,0.034108527131782945,0.018544780189811278,0.010181457739672134,,
475,0.00021114512962339832,0.99,0.0,0,0.034998390937850496,225.96401807744087,0.25910583974587054,0.6400374356795815,0.7184444444444444,0.49084544964997306,0.027309851367070745,,
476,3.6212768284660013e-06,0.51,0.0,0,0.21713817506498498,4.360427711924869,54.008731156601236,1.4401576994673653,0.13257575757575757,0.004822030827549684,-0.15136115807127512,,
480,7.695213260490252e-06,0.72,0.0,0,0.5,4.7120999846005445,27.58753485090902,1.4329453817783746,0.2620320855614973,0.008122540753232153,-0.08350397306334534,,
481,0.0002593739528388773,0.99,0.0,0,0.014788920457751088,370.8577619311992,0.008501697472629941,4.19489503434311,0.9791111111111112,0.04078144078144078,0.22441098080001307,,
482,1.1357640962007005e-05,0.77,0.0,0,0.10412276833167683,6.957387610402379,6.458156793240886,1.1605244783771311,0.2572463768115942,0.05079271873165003,0.10113133068122707,,
484,3.827031193719751e-06,0.21,0.0,0,0.3657405855182969,4.851721154210761,18.52640070879109,0.7027929167300494,0.017921146953405017,0.017089254202656265,-0.19640210173014977,,
485,7.398926974524853e-05,0.96,0.0,0,0.08486973167626545,47.88086548976735,0.30182325629722145,1.304336639426116,0.7557777777777778,0.2660297239915074,-0.06446346727790488,,
486,3.6212768284660013e-06,0.58,0.0,0,0.5,3.188750067134298,45.21095864245934,0.8737137759196468,0.14015151515151514,0.005884936319718929,-0.11313617730403988,,
488,8.353627229302252e-06,0.79,0.0,0,0.030831440995127978,5.4198026874794865,9.142903031393361,1.822093752305446,0.1839080459770115,0.019013940139401393,-0.045420206803278775,,
490,3.538975082364501e-06,0.44,0.0,0,0.5,3.433521120629297,38.76356052919615,1.4539738052929099,0.17054263565891473,0.0032724160499421036,-0.023474016772741094,,
491,7.156136823525427e-05,0.98,0.0,0,0.03263921521051419,30.305694037812085,0.11509751902916068,3.4115465672714946,0.9062222222222223,0.04561731278218901,0.04712513294860701,,
493,4.197389051176501e-06,0.6,0.0,0,0.5,3.4915495404440513,42.770404787462496,0.9087580468731958,0.2875816993464052,0.007391763463569166,-0.1413545711471796,,
495,3.168617224907751e-06,0.5,0.0,0,0.5,3.625436297285897,49.46276951536666,0.7909286424726109,0.12554112554112554,0.0032890409156689907,-0.09959281122579507,,
497,3.580125955415251e-06,0.59,0.0,0,0.5,4.771554650663022,36.7811649096782,1.0516860003147153,0.0842911877394636,0.007113687261230404,0.019975722451378228,,
498,0.00011950213533937805,0.99,0.0,0,0.5,30.489740296538244,0.41810990604954584,1.0577311555977338,0.7006666666666667,0.23915989159891599,0.0798933828806281,,
499,1.2468714534377253e-05,0.95,0.0,0,0.5,,,,,,0.044756838234899246,,
500,6.851620362949877e-05,0.99,0.0,0,0.04969354489652412,,,,,,0.044756838234899246,,
501,3.991634685922751e-06,0.58,0.0,0,0.5,4.063297410481379,32.61706699100689,0.8832924876321516,0.09278350515463918,0.00624367937387328,-0.12798370365903813,,
503,5.3496134965975015e-06,0.6,0.0,0,0.5,5.89245581744323,17.66120148223903,1.106395740824906,0.02564102564102564,0.01479420597067656,-0.06112787336382839,,
504,7.160251910830503e-05,0.99,0.0,0,0.4641451717244987,16.2611795851504,0.8175557864740307,1.4004972654034864,0.5673333333333334,0.15124845165916945,0.004480976480539907,,
505,6.789894053373752e-06,0.82,0.0,0,0.33819529418889654,,,,,,-0.038287956551601235,,
507,4.197389051176501e-06,0.63,0.0,0,0.5,,,,,,-0.21076343652066037,,
509,1.7694875411822505e-06,0.38,0.0,0,0.5,,,,,,,,
510,6.510068116628653e-05,0.99,0.0,0,0.32385496629070065,,,,,,-0.025127919682285525,,
511,1.2551016280478754e-05,0.67,0.0,0,0.5,5.43491250689138,11.584728200116327,2.1562253492490386,0.21639344262295082,0.011557493338869858,-0.08208627247709975,,
513,6.584139688120002e-06,0.52,0.0,0,0.3389927721172931,5.1966983244477705,14.73261518480023,2.103633158730142,0.09375,0.010124769891593373,-0.008526177609077513,,
515,4.773501273887002e-06,0.49,0.0,0,0.2898128506383648,5.378097640721604,13.085011720663525,2.3059080462732355,0.04885057471264368,0.009264915495825697,-0.04839673568599786,,
516,4.687084440480427e-05,0.99,0.0,0,0.12453027016177247,25.10300903195083,0.2666114518023325,2.8934995226653255,0.7928007023705005,0.04720233359851498,0.09012469597267586,,
517,5.802273100155752e-06,0.77,0.0,0,0.2578246098244282,4.072920608255187,26.180598936853716,1.2486765991398927,0.14420803782505912,0.007426175082998428,-0.07101874616527847,,
519,3.827031193719751e-06,0.57,0.0,0,0.49857731947457334,3.9585937433072447,51.386344248983725,1.3632312150130599,0.26523297491039427,0.002233049127080796,-0.12753200990995936,,
521,3.127466351857001e-06,0.55,0.0,0,0.4717123439668854,4.125836760843089,36.02085705598065,1.4838789971387591,0.12280701754385964,0.0024903715286827095,-0.059990532778193814,,
523,1.0699226993195003e-05,0.35,0.0,0,0.5,2.4752636209289394,60.21072649394911,1.4109313320928707,0.11208151382823872,0.005968337463962369,-0.19256279860456327,,
525,5.514216988800502e-06,0.37,0.0,0,0.5,2.755308196223867,85.24540547260051,1.3401921460475152,0.022598870056497175,0.0028501492136941285,-0.20280800979272487,,
527,4.732350400836251e-06,0.29,0.0,0,0.5,2.8676848639811885,85.09655077824215,1.2468603345995861,0.0165016501650165,0.0032162420222121716,-0.18263929791455302,,
528,5.2179307028351016e-05,0.78,0.0,0,0.11631819550840299,12.516737041386662,2.1598038732447122,1.7342426185910595,0.6678571428571428,0.027595338983050846,-0.019903272837671283,,
529,6.172630957612502e-06,0.56,0.0,0,0.0017252168134074802,6.1429882891202325,6.951145969911098,1.3353939250020064,0.26,0.013976593415845753,0.004636263782154359,,
531,2.0575436525375006e-06,0.37,0.0,0,0.005175650440221946,6.040297177674291,14.942732260937985,1.3437012463189324,0.10666666666666667,0.0070624948673729164,-0.0033470276885962853,,
533,3.2920698440600014e-07,0.07,0.0,0,0.032347815251391035,,,,,,,,
534,6.222012005273403e-05,0.69,0.0,0,0.004001694054006394,111.60142952245944,0.025704564842472796,3.720433903441152,0.9511111111111111,0.05691689355633346,-0.0033470276885962853,,
535,3.580125955415251e-06,0.54,0.0,0,0.5,4.321879809528623,64.49366907222874,1.096931672565363,0.0842911877394636,0.003187285786015238,-0.20273954007773876,,
536,6.514183203933727e-05,0.99,0.0,0,0.4713902248866089,12.17658701225385,1.6252552361944714,1.4397453394914925,0.2828888888888889,0.08663651000536686,0.021647910420259014,,
537,3.744729447618251e-06,0.6,0.0,0,0.002843763978143759,3.325641129136186,46.910202110906,1.0441902746053686,0.08058608058608059,0.0028415680816515887,-0.09614969592488896,,
539,5.020406512191502e-06,0.69,0.0,0,0.0021211682132056603,5.184016379219317,28.089751435045763,1.0556930360984498,0.03278688524590164,0.007472016281436255,-0.17684882050433565,,
541,1.4814314298270005e-06,0.29,0.0,0,0.31274395894475693,4.549655786673131,76.77603363185796,0.9333044082841628,0.009259259259259259,0.002135457247568753,-0.07919498391607939,,
543,5.719971354054252e-06,0.45,0.0,0,0.48982687262314845,3.7511134269959916,46.79258309285345,1.4747527901754998,0.16546762589928057,0.006225125012756403,-0.09426106451385045,,
544,6.176746044917577e-05,0.99,0.0,0,0.5,12.090273432319268,1.6907148664861666,1.622588727040905,0.6166666666666667,0.07433341245351689,0.03634535794789216,,
545,5.308462623546752e-06,0.52,0.0,0,0.5,5.210761087675011,15.18734305890129,2.047935632980013,0.31266149870801035,0.002628504672897196,-0.0679402528454887,,
547,6.172630957612502e-06,0.54,0.0,0,0.5,7.178475671246122,6.289270494469263,2.700031576207484,0.11555555555555555,0.01008031736741131,-0.09044598272111516,,
548,5.518332076105577e-05,0.95,0.0,0,0.5,85.61688356711461,0.11112942066253603,4.100301900694166,0.8727317921948794,0.027924944812362032,0.10739397686559532,,
549,8.929739452012753e-06,0.76,0.0,0,0.5,5.567646895491708,12.962799313660202,1.1894553973755242,0.2626728110599078,0.007022912743251727,-0.07508016395973319,,
551,2.345599763892751e-06,0.42,0.0,0,0.5,5.651187638520043,14.527228375286528,1.4880866977926768,0.023391812865497075,0.0041974738139248305,-0.0616637293956738,,
553,1.6048840489792506e-06,0.29,0.0,0,0.5,7.481128919619056,12.62020269115511,1.5222961988267072,0.03418803418803419,0.0026131734686034892,,,
555,1.0287718262687503e-06,0.24,0.0,0,0.5,9.123129736829885,5.847889696822392,1.2966700906652435,0.0,0.0017648864333947207,,,
557,2.345599763892751e-06,0.4,0.0,0,0.36771778459235205,5.96766227476858,13.371295453130385,1.2916212687618909,0.1286549707602339,0.0016943930991990142,-0.15651983951373746,,
558,4.8640331945986515e-05,0.98,0.0,0,0.0075182804682144555,35.659308353892726,0.06510121793996382,1.9600979796964424,0.9120135363790186,0.03377152215287921,0.049780637950547456,,
559,7.5717606413380025e-06,0.35,0.0,0,0.5,,,,,,-0.22752358085421637,,
561,2.3044488908420007e-06,0.27,0.0,0,0.00796298957030602,,,,,,-0.1217312126484063,,
562,5.304347536241677e-05,0.93,0.0,0,0.5,,,,,,-0.12904681837883406,,
563,5.884574846257252e-06,0.32,0.0,0,0.5,3.920704678049848,66.58253293463441,1.6715493431288766,0.2191142191142191,0.00510794524921186,-0.06537951566069403,,
565,5.267311750496002e-06,0.45,0.0,0,0.5,4.072358650114544,58.397442737855826,1.381667171685829,0.0859375,0.00474453282299703,-0.19295455883842855,,
567,5.102708258293002e-06,0.44,0.0,0,0.5,4.365599133982587,55.265444881467076,1.2925121614888029,0.05913978494623656,0.0044444444444444444,-0.023522291415210277,,
569,2.345599763892751e-06,0.26,0.0,0,0.5,4.993789174927309,53.46849135014251,1.6315630421117746,0.03508771929824561,0.0026004446561854852,,,
570,4.3866830672099516e-05,0.95,0.0,0,0.2573056266933545,12.055409914892287,2.644553135087202,1.6290973057605558,0.5906816760475297,0.03153181693383176,0.043693599233581716,,
571,4.032785558973501e-06,0.58,0.0,0,0.5,3.0615419193204465,88.52590762716464,0.7599327654208843,0.047619047619047616,0.0046105919003115265,,,
573,2.345599763892751e-06,0.43,0.0,0,0.22516376759697693,3.333801985245219,132.2341108442178,1.146404253536139,0.05263157894736842,0.0029815146094215863,-0.08957040145721744,,
575,3.7858803206690012e-06,0.59,0.0,0,0.046291114369685006,3.070085918352362,87.99990408109139,0.7343608376898106,0.06159420289855073,0.0045088807513140525,-0.20202565239249562,,
577,1.3168279376240005e-06,0.25,0.0,0,0.5,3.8295538921389074,123.518520742893,0.723261153371971,0.020833333333333332,0.0013391860724648464,,,
580,4.238539924227251e-06,0.61,0.0,0,0.18506459704318917,4.396543152847334,69.9340969700665,1.7260706716165646,0.5469255663430421,0.0014724967555156234,0.11243216710188153,,
582,5.596518734902002e-06,0.69,0.0,0,0.5,4.0027457265761,47.343339072324675,1.308805983383013,0.049019607843137254,0.0047286647151542445,-0.08184603038342297,,
584,1.4402805567762504e-06,0.33,0.0,0,0.007393786343174259,3.7145124765843165,119.52831492610883,1.1632746167720678,0.009523809523809525,0.0013657131505760826,-0.20429673865542125,,
586,1.8517892872837505e-06,0.32,0.0,0,0.005750722711357626,3.838119411537975,88.71074333686299,1.1499687346894227,0.02962962962962963,0.0025595149346453955,,,
589,1.0904981358448754e-05,0.89,0.0,0,0.44477337893762564,3.6612655998631554,28.991916652253718,0.6748415158078978,0.07044025157232704,0.011596180081855388,-0.16888426572992268,,
591,9.505851674723253e-06,0.82,0.0,0,0.5,3.817306984315376,34.52073164458753,0.433181575615988,0.023088023088023088,0.011629663192871167,-0.1924433791123472,,
593,2.0986945255882507e-06,0.39,0.0,0,0.36274337703308596,3.207294004902417,118.03515145632332,0.8283465963785339,0.0196078431372549,0.0027815030050166393,-0.20429673865542125,,
594,0.00019863526421597032,0.99,0.0,0,0.2623761034211853,18.214999858546445,0.6930280769109257,0.6045552820750433,0.4908888888888889,0.3393124065769806,-0.0855510297963236,,
595,4.361992543379502e-06,0.58,0.0,0,0.5,5.305224900820014,33.48857484677059,0.7325469926208286,0.05660377358490566,0.010385132862428523,-0.04996558338077645,,
597,1.9340910333852507e-06,0.39,0.0,0,0.01621132897651395,6.519664722429463,40.82971331790536,1.033716554913706,0.0,0.005216810650640624,-0.06224245453031497,,
598,5.448375591919302e-05,0.99,0.0,0,0.5,12.301798743621736,1.6345977539920578,0.9109403811864316,0.35473313192346423,0.13353204172876304,0.002998459443797028,,
599,2.0163927794867505e-06,0.39,0.0,0,0.5,5.296186559775846,47.64368736690483,0.6886102697751367,0.013605442176870748,0.00329785013567105,-0.05369263806445332,,
600,5.822848536681127e-05,0.99,0.0,0,0.16495230735363425,12.059130786052675,1.5939218307645207,0.8612761982432701,0.27820965842167256,0.15430326836883718,0.014007302101050756,,
601,4.032785558973501e-06,0.53,0.0,0,0.5,,,,,,,,
603,4.938104766090001e-06,0.65,0.0,0,0.5,,,,,,-0.012762234923185413,,
605,3.045164605755501e-06,0.48,0.0,0,0.37468050208193654,3.727598756904444,50.069544714611176,1.3811492948729738,0.06756756756756757,0.0037638611424766206,-0.19287867243815401,,
607,1.9340910333852507e-06,0.38,0.0,0,0.5,3.8647162875979384,59.19787800899534,1.1488585273298768,0.0,0.00268630849220104,,,
610,3.292069844060001e-06,0.54,0.0,0,0.003234781525138586,4.870859034608771,32.26720602381807,1.3351629507256715,0.029166666666666667,0.00544596042988326,-0.19623530777314735,,
612,4.361992543379502e-06,0.47,0.0,0,0.0024413445472746247,5.140727220480981,9.023531983551269,1.375428540527762,0.24842767295597484,0.008993255058705971,-0.04258793551209585,,
614,4.238539924227251e-06,0.48,0.0,0,0.03918963161759148,5.719713192159995,8.761777160765385,1.6550782576147895,0.08737864077669903,0.012980529206190713,-0.04258793551209585,,
616,1.5637331759285005e-06,0.24,0.0,0,0.006810066368712364,11.685410803607962,3.202933502844419,1.4368547435472347,0.43859649122807015,0.003848358306722345,,,
617,4.6294732182093764e-05,0.57,0.0,0,0.0033264923821179257,55.46060145381142,0.042429947438885895,3.377279336955074,0.9392592592592592,0.05440125111706881,0.1620306779775698,,
619,6.254932703714002e-06,0.78,0.0,0,0.5,5.516305291489441,18.640447008543088,1.5419815780005555,0.45614035087719296,0.003731234513919254,-0.017773096836369306,,
621,4.8146521469377515e-06,0.41,0.0,0,0.39273566090718265,3.301634076005084,26.31954040492744,1.3371352764747424,0.21367521367521367,0.008094778599764126,-0.15752225847140022,,
623,5.061557385242251e-06,0.48,0.0,0,0.22475609708962613,3.999290403996034,20.444900912807753,1.6500864702280833,0.26287262872628725,0.00939042713028547,0.06542725263700976,,
625,2.592505002197251e-06,0.41,0.0,0,0.42642055006464064,3.2211260392016303,25.85217689945726,1.5369935012533436,0.2698412698412698,0.00430484693877551,,,
627,1.7283366681315007e-06,0.31,0.0,0,0.5,4.49193033989327,20.441167974555547,1.9467462555233963,0.10317460317460317,0.003972668043858255,,,
628,4.016325209753201e-05,0.97,0.0,0,0.13544200943536747,28.386509370139024,0.15981913967788303,2.132375960862095,0.8726092896174863,0.05038253405486098,0.010788596368876108,,
629,5.102708258293002e-06,0.44,0.0,0,0.0021030157612525902,9.285234650295028,5.584953205400033,2.4691130584403598,0.75,0.001306363253265908,-0.04996558338077645,,
631,2.345599763892751e-06,0.44,0.0,0,0.3058098507215882,5.63837194812682,21.275912594399305,0.9631860761117239,0.23976608187134502,0.0028415026534620367,-0.06690857916408412,,
633,1.5637331759285005e-06,0.26,0.0,0,0.07894736842104663,9.852566979135037,12.871925015027708,1.7668768968286166,0.24561403508771928,0.0029181257295314324,-0.06690857916408412,,
634,4.2426550115323266e-05,0.99,0.0,0,0.0307300846553542,23.38160330765384,0.32561575170691487,3.188812220991858,0.8360814742967992,0.030463134846970347,0.08006929213717856,,
636,2.4690523830450007e-06,0.39,0.0,0,0.5,,,,,,0.0009855755635479468,,
638,2.757108494400251e-06,0.45,0.0,0,0.5,,,,,,-0.04529587802711475,,
639,0.0001632455133923253,0.99,0.0,0,0.5,,,,,,0.09005496732434223,,
640,1.5225823028777504e-05,0.92,0.0,0,0.5,6.051298452678505,4.4538251334117875,1.0477480906580159,0.4846846846846847,0.030724816991442416,-0.2385229338127101,,
642,5.061557385242251e-06,0.64,0.0,0,0.3834431907450774,6.352559408468005,5.917237181569923,1.4280751030249295,0.16531165311653118,0.026915708812260537,-0.15079089783609168,,
644,1.3168279376240005e-06,0.23,0.0,0,0.5,8.609013277612664,7.232126976649759,1.4844488957946593,0.15625,0.007187529170167087,-0.2385229338127101,,
646,1.1110735723702503e-06,0.22,0.0,0,0.5,7.951414588335902,7.563780570609645,1.393311312840458,0.012345679012345678,0.004847129008202834,,,
647,2.452592033824701e-05,0.96,0.0,0,0.5,52.62175866660748,0.12351625197946467,2.1523980200594846,0.8159955257270693,0.0783726859549939,-0.005239340044132155,,
648,1.2839072391834005e-05,0.89,0.0,0,0.5,8.687772958052774,1.7052134741358422,2.4550948171424545,0.6923076923076923,0.009656746554297253,-0.20604185985595783,,
650,1.1481093581159254e-05,0.86,0.0,0,0.5,19.94619308025086,0.48436897032597603,2.7732747417393937,0.8566308243727598,0.01288076588337685,0.17132549548128148,,
651,1.7530271919619505e-05,0.93,0.0,0,0.5,73.7812153655158,0.04185186495173206,3.9379708881526896,0.9123630672926447,0.023531541315956195,-0.041968140006851104,,
652,3.4155224632122512e-06,0.4,0.0,0,0.37637371459658203,4.075813738140311,40.37216794348736,0.8948752130412547,0.04417670682730924,0.009538152610441768,-0.12675846658808862,,
654,1.7694875411822505e-06,0.29,0.0,0,0.0060181981863054925,3.934224909124104,63.42186768070657,1.2138890681752459,0.08527131782945736,0.0031763826606875933,-0.03831843707102129,,
656,3.991634685922751e-06,0.55,0.0,0,0.0689056121774245,6.48542764110833,19.895788399761276,1.4595292019147126,0.23367697594501718,0.012331697495910406,-0.10453501382972363,,
657,3.2303435344838763e-05,0.97,0.0,0,0.0010242701165370741,9.521253393790927,2.7409974334174025,1.00097837440015,0.3295116772823779,0.10889370932754881,0.02807183050943843,,
658,1.5513879140132755e-05,0.89,0.0,0,0.23776222000255393,13.221923561484417,1.3587518982882403,1.6041842238252833,0.579133510167993,0.10796019900497512,0.01791931729429181,,
660,2.2632980177912506e-06,0.44,0.0,0,0.2745929448089185,7.911006797902036,5.248643716934794,1.5145177291697716,0.09090909090909091,0.020657841957480945,-0.04948990082786172,,
662,8.501770372284953e-05,0.99,0.0,0,0.01076290027035355,,,,,,0.14993725512725659,,
663,6.896886323305702e-05,0.99,0.0,0,0.020748092220015918,53.59024746778911,0.033968894162842614,4.848457073012579,0.9808888888888889,0.0033458244111349037,0.13095256402367145,,
664,4.773501273887002e-06,0.62,0.0,0,0.5,6.95410384902659,33.381697487274835,1.4699635700514733,0.1781609195402299,0.004658792650918635,-0.017881560574069012,,
666,1.4402805567762504e-06,0.28,0.0,0,0.5,6.197615619978987,47.86163813566025,1.5179806163833653,0.047619047619047616,0.0007832386919913843,-0.0780618778825802,,
667,2.4320165972993257e-05,0.92,0.0,0,0.01928183654924184,10.483537976606605,3.742401697177648,1.6721384356248723,0.2893401015228426,0.027384580652443844,0.04458326727453392,,
668,5.872229584342027e-05,0.99,0.0,0,0.0001818197087475902,,,,,,0.3118166256133916,,
669,5.2878871870213766e-05,0.99,0.0,0,0.03621084187049163,34.006076023731985,0.148597389810195,3.569807105042351,0.8747081712062257,0.04403202328966521,0.01791931729429181,,
671,1.6460349220300005e-06,0.29,0.0,0,0.5,,,,,,-0.015451178126020077,,
672,9.649879730400878e-05,0.99,0.0,0,0.023356517790270544,,,,,,0.04087709529109663,,
673,3.538975082364501e-06,0.28,0.0,0,0.003009099093152138,8.12806484062731,3.9886337797904403,2.7211126049576086,0.4844961240310077,0.004828504828504829,0.10494487924336526,,
674,2.2221471447405006e-05,0.52,0.0,0,0.0004792268926131377,62.40799470708254,0.023761057379328782,6.07698861993051,0.9654320987654321,0.013145539906103286,0.1172466194749342,,
675,0.00016485039744130455,0.99,0.0,0,0.5,39.149161050183245,0.06620940896317504,2.7490191306487444,0.9193333333333333,0.08822143698468787,0.01666547824258056,,
